============================= test session starts ==============================
platform linux -- Python 3.6.9, pytest-3.6.2, py-1.5.3, pluggy-0.6.0 -- /home/millena/codenation/python-5/venv/bin/python
cachedir: .pytest_cache
rootdir: /home/millena/codenation/python-5, inifile:
collecting ... collected 8 items

test_submit.py::TestChallenge1::test_len PASSED                          [ 12%]
test_submit.py::TestChallenge1::test_1 PASSED                            [ 25%]
test_submit.py::TestChallenge1::test_2 PASSED                            [ 37%]
test_submit.py::TestChallenge1::test_3 PASSED                            [ 50%]
test_submit.py::TestChallenge1::test_4 PASSED                            [ 62%]
test_submit.py::TestChallenge1::test_5 PASSED                            [ 75%]
test_submit.py::TestChallenge1::test_6 PASSED                            [ 87%]
test_submit.py::TestChallenge1::test_7 PASSED                            [100%]

------- generated xml file: /home/millena/codenation/python-5/output.xml -------
=========================== 8 passed in 0.11 seconds ===========================
