============================= test session starts ==============================
platform linux -- Python 3.6.9, pytest-3.6.2, py-1.5.3, pluggy-0.6.0 -- /home/millena/codenation/python-11/venv/bin/python
cachedir: .pytest_cache
rootdir: /home/millena/codenation/python-11, inifile:
collecting ... collected 7 items

test_submit.py::TestChallenge10::test_1 PASSED                           [ 14%]
test_submit.py::TestChallenge10::test_2 PASSED                           [ 28%]
test_submit.py::TestChallenge10::test_3 PASSED                           [ 42%]
test_submit.py::TestChallenge10::test_4 PASSED                           [ 57%]
test_submit.py::TestChallenge10::test_5 PASSED                           [ 71%]
test_submit.py::TestChallenge10::test_6 PASSED                           [ 85%]
test_submit.py::TestChallenge10::test_7 PASSED                           [100%]

------ generated xml file: /home/millena/codenation/python-11/output.xml -------
=========================== 7 passed in 0.37 seconds ===========================
